{"tracks":{
	"href":"https://api.spotify.com/v1/search?query=hard+sun&type=track&o
	ffset=0&limit=1",
	"items":
		[{"album":
			{"album_type":"album",
				"artists":[{
					"external_urls":{"spotify":"https://open.spotify.com/artist/0mXTJETA4XUa12MmmXxZJh"},
					"href":"https://api.spotify.com/v1/artists/0mXTJETA4XUa12MmmXxZJh",
					"id":"0mXTJETA4XUa12MmmXxZJh",
					"name":"Eddie Vedder",
					"type":"artist",
					"uri":"spotify:artist:0mXTJETA4XUa12MmmXxZJh"
				}],
				"available_markets":[
					"AD","AR","AT","AU","BE","BG","BO","BR","CA","CH","CL","CO","CR","CY","CZ","DE","DK","DO","EC","EE","ES","FI","FR","GB","GR","GT","HK","HN","HU","ID","IE","IL","IS","IT","JP","LI","LT","LU","LV","MC","MT","MX","MY","NI","NL","NO","NZ","PA","PE","PH","PL","PT","PY","RO","SE","SG","SK","SV","TH","TR","TW","US","UY","VN","ZA"
				],
				"external_urls":{
					"spotify":"https://open.spotify.com/album/13xlpKbai3GGoMSr75lOeX"
				},
				"href":"https://api.spotify.com/v1/albums/13xlpKbai3GGoMSr75lOeX",
				"id":"13xlpKbai3GGoMSr75lOeX",
				"images":[{
						"height":640,
						"url":"https://i.scdn.co/image/30c5eb7acfc64a555c56b83be2bf019cd4c9d565",	"width":640
					},
					{
						"height":300,
						"url":"https://i.scdn.co/image/dcfd57518e4355cadc49b		c6fe1aa0980d8cab867",
						"width":300
					},
					{
						"height":64,
						"url":"https://i.scdn.co/image/f82add1c7c526e8c5a222e61ead562d094e3760e",
						"width":64
					}],
				"name":"Into The Wild (Music For The Motion Picture)",
				"release_date":"2007-09-18",
				"release_date_precision":"day",
				"total_tracks":16,
				"type":"album",
				"uri":"spotify:album:13xlpKbai3GGoMSr75lOeX"
			},
			"artists":[{
				"external_urls":{
					"spotify":"https://open.spotify.com/artist/0mXTJETA4XUa12MmmXxZJh"},
				"href":"https://api.spotify.com/v1/artists/0mXTJETA4XUa12MmmXxZJh",	"id":"0mXTJETA4XUa12MmmXxZJh",
				"name":"Eddie Vedder",
				"type":"artist",	"uri":"spotify:artist:0mXTJETA4XUa12MmmXxZJh"
			}],
			"available_markets":[
				"AD","AR","AT","AU","BE","BG","BO","BR","CA","CH","CL","CO","CR","CY","CZ","DE","DK","DO","EC","EE","ES","FI","FR","GB","GR","GT","HK","HN","HU","ID","IE","IL","IS","IT","JP","LI","LT","LU","LV","MC","MT","MX","MY","NI","NL","NO","NZ","PA","PE","PH","PL","PT","PY","RO","SE","SG","SK","SV","TH","TR","TW","US","UY","VN","ZA"
			],
			"disc_number":1,
			"duration_ms":322080,
			"explicit":false,
			"external_ids":{"isrc":"USJY51700106"},
			"external_urls":{
				"spotify":"https://open.spotify.com/track/0fzCtVM9D5UEwiLqcY8Ouq"
			},
			"href":"https://api.spotify.com/v1/tracks/0fzCtVM9D5UEwiLqcY8Ouq",
			"id":"0fzCtVM9D5UEwiLqcY8Ouq",
			"is_local":false,
			"name":"Hard Sun",
			"popularity":62,	
			"preview_url":null,
			"track_number":7,
			"type":"track",
			"uri":"spotify:track:0fzCtVM9D5UEwiLqcY8Ouq"
		}],
	"limit":1,
	"next":"https://api.spotify.com/v1/search?query=hard+sun&type=track&offset=1&limit=1",
	"offset":0,
	"previous":null,
	"total":610
	}
}
